cs223-2.sim/sim_1/behav/xsim/tb_full_adder_test.vcd
$date
   Sun Mar 10 16:14:37 2024
$end

$version
  2023.2
  $dumpfile ("tb_full_adder_test.vcd") 
$end

$timescale
  1ps
$end

$scope module tb_full_adder_test $end
$var reg 1 ! A $end
$var reg 1 " B $end
$var reg 1 # Cin $end
$var reg 1 $ Sum $end
$var reg 1 % Cout $end
$scope module uut $end
$var wire 1 & A $end
$var wire 1 ' B $end
$var wire 1 ( Cin $end
$var reg 1 $ Sum $end
$var reg 1 % Cout $end
$upscope $end
$upscope $end
$enddefinitions $end

#0
$dumpvars
0!
0"
0#
0$
0%
0&
0'
0(
$end

#10000
1#
1$
1(

#20000
1"
0$
1%
1'

#30000
0"
0#
0%
0'
0(

#40000
1!
1$
1&

#50000
0!
1"
0&
1'

#60000
1!
0$
1%
1&

#70000
1#
1$
1(
