cs223-3.sim/sim_1/behav/xsim/simulate.log
Time resolution is 1 ps
 0 0 0 0 0 0
 0 0 0 0 1 1
 0 0 0 1 0 1
 0 0 0 1 1 0
 0 0 1 0 0 0
 0 0 1 0 1 0
 0 0 1 1 0 0
 0 0 1 1 1 1
 0 1 0 0 0 0
 0 1 0 0 1 0
 0 1 0 1 0 1
 0 1 0 1 1 0
 0 1 1 0 0 0
 0 1 1 0 1 0
 0 1 1 1 0 0
 0 1 1 1 1 0
 1 0 0 0 0 1
 1 0 0 0 1 1
 1 0 0 1 0 1
 1 0 0 1 1 1
 1 0 1 0 0 0
 1 0 1 0 1 1
 1 0 1 1 0 0
 1 0 1 1 1 0
 1 1 0 0 0 0
 1 1 0 0 1 0
 1 1 0 1 0 1
 1 1 0 1 1 0
 1 1 1 0 0 0
 1 1 1 0 1 1
 1 1 1 1 0 1
 1 1 1 1 1 0
